module gitlab.com/DerLinkshaender/csv2xlsx

go 1.18

require (
	github.com/tealeg/xlsx/v3 v3.2.4
	golang.org/x/text v0.3.7
)

require (
	github.com/frankban/quicktest v1.11.2 // indirect
	github.com/google/btree v1.0.0 // indirect
	github.com/google/go-cmp v0.5.2 // indirect
	github.com/kr/pretty v0.2.1 // indirect
	github.com/kr/text v0.1.0 // indirect
	github.com/peterbourgon/diskv v2.0.1+incompatible // indirect
	github.com/rogpeppe/fastuuid v1.2.0 // indirect
	github.com/shabbyrobe/xmlwriter v0.0.0-20200208144257-9fca06d00ffa // indirect
	golang.org/x/xerrors v0.0.0-20191204190536-9bdfabe68543 // indirect
)
